<mxfile host="app.diagrams.net" modified="2024-05-13T17:43:54.859Z" agent="Mozilla/5.0 (Windows NT 10.0; Win64; x64) AppleWebKit/537.36 (KHTML, like Gecko) Chrome/124.0.0.0 Safari/537.36" etag="hOK2wK26oIOsFjkBDsPw" version="24.4.0" type="gitlab">
  <diagram name="Page-1" id="hj96wbc2EXEfZMVr3I3T">
    <mxGraphModel dx="859" dy="478" grid="1" gridSize="10" guides="1" tooltips="1" connect="1" arrows="1" fold="1" page="1" pageScale="1" pageWidth="850" pageHeight="1100" math="0" shadow="0">
      <root>
        <mxCell id="0" />
        <mxCell id="1" parent="0" />
        <mxCell id="EjGe6AGDJSv8PCg2W2QF-1" value="" style="rounded=0;whiteSpace=wrap;html=1;" vertex="1" parent="1">
          <mxGeometry x="120" y="60" width="240" height="360" as="geometry" />
        </mxCell>
        <mxCell id="EjGe6AGDJSv8PCg2W2QF-2" value="" style="rounded=0;whiteSpace=wrap;html=1;" vertex="1" parent="1">
          <mxGeometry x="360" y="60" width="220" height="360" as="geometry" />
        </mxCell>
        <mxCell id="EjGe6AGDJSv8PCg2W2QF-3" value="Người dùng" style="text;strokeColor=none;fillColor=none;align=left;verticalAlign=middle;spacingLeft=4;spacingRight=4;overflow=hidden;points=[[0,0.5],[1,0.5]];portConstraint=eastwest;rotatable=0;whiteSpace=wrap;html=1;" vertex="1" parent="1">
          <mxGeometry x="200" y="20" width="80" height="30" as="geometry" />
        </mxCell>
        <mxCell id="EjGe6AGDJSv8PCg2W2QF-5" value="Hệ thống" style="text;html=1;align=center;verticalAlign=middle;whiteSpace=wrap;rounded=0;" vertex="1" parent="1">
          <mxGeometry x="450" y="20" width="60" height="30" as="geometry" />
        </mxCell>
        <mxCell id="EjGe6AGDJSv8PCg2W2QF-9" style="edgeStyle=orthogonalEdgeStyle;rounded=0;orthogonalLoop=1;jettySize=auto;html=1;entryX=0;entryY=0.5;entryDx=0;entryDy=0;" edge="1" parent="1" source="EjGe6AGDJSv8PCg2W2QF-6" target="EjGe6AGDJSv8PCg2W2QF-7">
          <mxGeometry relative="1" as="geometry" />
        </mxCell>
        <mxCell id="EjGe6AGDJSv8PCg2W2QF-6" value="" style="ellipse;html=1;shape=endState;fillColor=#000000;strokeColor=#ff0000;" vertex="1" parent="1">
          <mxGeometry x="150" y="80" width="30" height="30" as="geometry" />
        </mxCell>
        <mxCell id="EjGe6AGDJSv8PCg2W2QF-10" style="edgeStyle=orthogonalEdgeStyle;rounded=0;orthogonalLoop=1;jettySize=auto;html=1;entryX=0;entryY=0.5;entryDx=0;entryDy=0;" edge="1" parent="1" source="EjGe6AGDJSv8PCg2W2QF-7" target="EjGe6AGDJSv8PCg2W2QF-8">
          <mxGeometry relative="1" as="geometry" />
        </mxCell>
        <mxCell id="EjGe6AGDJSv8PCg2W2QF-7" value="bấm nút đăng xuất" style="rounded=0;whiteSpace=wrap;html=1;" vertex="1" parent="1">
          <mxGeometry x="230" y="75" width="110" height="40" as="geometry" />
        </mxCell>
        <mxCell id="EjGe6AGDJSv8PCg2W2QF-18" style="edgeStyle=orthogonalEdgeStyle;rounded=0;orthogonalLoop=1;jettySize=auto;html=1;" edge="1" parent="1" source="EjGe6AGDJSv8PCg2W2QF-8" target="EjGe6AGDJSv8PCg2W2QF-11">
          <mxGeometry relative="1" as="geometry" />
        </mxCell>
        <mxCell id="EjGe6AGDJSv8PCg2W2QF-8" value="nhận thông tin&amp;nbsp;" style="rounded=0;whiteSpace=wrap;html=1;" vertex="1" parent="1">
          <mxGeometry x="447.5" y="80" width="95" height="30" as="geometry" />
        </mxCell>
        <mxCell id="EjGe6AGDJSv8PCg2W2QF-14" style="edgeStyle=orthogonalEdgeStyle;rounded=0;orthogonalLoop=1;jettySize=auto;html=1;entryX=1;entryY=0.5;entryDx=0;entryDy=0;" edge="1" parent="1" source="EjGe6AGDJSv8PCg2W2QF-11" target="EjGe6AGDJSv8PCg2W2QF-13">
          <mxGeometry relative="1" as="geometry" />
        </mxCell>
        <mxCell id="EjGe6AGDJSv8PCg2W2QF-16" style="edgeStyle=orthogonalEdgeStyle;rounded=0;orthogonalLoop=1;jettySize=auto;html=1;entryX=1;entryY=0.5;entryDx=0;entryDy=0;" edge="1" parent="1" source="EjGe6AGDJSv8PCg2W2QF-11" target="EjGe6AGDJSv8PCg2W2QF-15">
          <mxGeometry relative="1" as="geometry">
            <Array as="points">
              <mxPoint x="495" y="240" />
            </Array>
          </mxGeometry>
        </mxCell>
        <mxCell id="EjGe6AGDJSv8PCg2W2QF-11" value="Hiển thị thông báo xác nhận đăng xuất" style="rounded=0;whiteSpace=wrap;html=1;" vertex="1" parent="1">
          <mxGeometry x="435" y="140" width="120" height="50" as="geometry" />
        </mxCell>
        <mxCell id="EjGe6AGDJSv8PCg2W2QF-20" style="edgeStyle=orthogonalEdgeStyle;rounded=0;orthogonalLoop=1;jettySize=auto;html=1;entryX=0;entryY=0.5;entryDx=0;entryDy=0;" edge="1" parent="1" source="EjGe6AGDJSv8PCg2W2QF-13" target="EjGe6AGDJSv8PCg2W2QF-19">
          <mxGeometry relative="1" as="geometry">
            <Array as="points">
              <mxPoint x="170" y="310" />
            </Array>
          </mxGeometry>
        </mxCell>
        <mxCell id="EjGe6AGDJSv8PCg2W2QF-13" value="bấm OK" style="rounded=0;whiteSpace=wrap;html=1;" vertex="1" parent="1">
          <mxGeometry x="130" y="150" width="80" height="30" as="geometry" />
        </mxCell>
        <mxCell id="EjGe6AGDJSv8PCg2W2QF-15" value="bấm huỷ thao tác" style="rounded=0;whiteSpace=wrap;html=1;" vertex="1" parent="1">
          <mxGeometry x="220" y="210" width="120" height="60" as="geometry" />
        </mxCell>
        <mxCell id="EjGe6AGDJSv8PCg2W2QF-24" style="edgeStyle=orthogonalEdgeStyle;rounded=0;orthogonalLoop=1;jettySize=auto;html=1;entryX=0.5;entryY=0;entryDx=0;entryDy=0;" edge="1" parent="1" source="EjGe6AGDJSv8PCg2W2QF-19" target="EjGe6AGDJSv8PCg2W2QF-23">
          <mxGeometry relative="1" as="geometry" />
        </mxCell>
        <mxCell id="EjGe6AGDJSv8PCg2W2QF-19" value="chuyển tới trang khách" style="rounded=0;whiteSpace=wrap;html=1;" vertex="1" parent="1">
          <mxGeometry x="410" y="280" width="120" height="60" as="geometry" />
        </mxCell>
        <mxCell id="EjGe6AGDJSv8PCg2W2QF-23" value="" style="ellipse;html=1;shape=endState;fillColor=#000000;strokeColor=#ff0000;" vertex="1" parent="1">
          <mxGeometry x="455" y="370" width="30" height="30" as="geometry" />
        </mxCell>
      </root>
    </mxGraphModel>
  </diagram>
</mxfile>
