<mxfile host="app.diagrams.net" modified="2024-05-13T17:29:55.592Z" agent="Mozilla/5.0 (Windows NT 10.0; Win64; x64) AppleWebKit/537.36 (KHTML, like Gecko) Chrome/124.0.0.0 Safari/537.36" etag="KuJ7q1z9nXu3NwbAxatg" version="24.4.0" type="gitlab">
  <diagram name="Page-1" id="9coZAGhnWd2dyW4da7li">
    <mxGraphModel dx="1011" dy="562" grid="1" gridSize="10" guides="1" tooltips="1" connect="1" arrows="1" fold="1" page="1" pageScale="1" pageWidth="850" pageHeight="1100" math="0" shadow="0">
      <root>
        <mxCell id="0" />
        <mxCell id="1" parent="0" />
        <mxCell id="8BCfIVkV7p5ncEj1tbCE-11" value="" style="rounded=0;whiteSpace=wrap;html=1;" parent="1" vertex="1">
          <mxGeometry x="590" y="320" width="200" height="550" as="geometry" />
        </mxCell>
        <mxCell id="8BCfIVkV7p5ncEj1tbCE-12" value="" style="rounded=0;whiteSpace=wrap;html=1;" parent="1" vertex="1">
          <mxGeometry x="790" y="320" width="240" height="550" as="geometry" />
        </mxCell>
        <mxCell id="8BCfIVkV7p5ncEj1tbCE-13" value="Người dùng" style="text;strokeColor=none;fillColor=none;align=left;verticalAlign=middle;spacingLeft=4;spacingRight=4;overflow=hidden;points=[[0,0.5],[1,0.5]];portConstraint=eastwest;rotatable=0;whiteSpace=wrap;html=1;" parent="1" vertex="1">
          <mxGeometry x="670" y="290" width="80" height="30" as="geometry" />
        </mxCell>
        <mxCell id="8BCfIVkV7p5ncEj1tbCE-14" value="Hệ thống" style="text;strokeColor=none;fillColor=none;align=left;verticalAlign=middle;spacingLeft=4;spacingRight=4;overflow=hidden;points=[[0,0.5],[1,0.5]];portConstraint=eastwest;rotatable=0;whiteSpace=wrap;html=1;" parent="1" vertex="1">
          <mxGeometry x="840" y="290" width="80" height="30" as="geometry" />
        </mxCell>
        <mxCell id="8BCfIVkV7p5ncEj1tbCE-16" value="" style="ellipse;html=1;shape=endState;fillColor=#000000;strokeColor=#ff0000;" parent="1" vertex="1">
          <mxGeometry x="610" y="340" width="30" height="30" as="geometry" />
        </mxCell>
        <mxCell id="8BCfIVkV7p5ncEj1tbCE-20" style="edgeStyle=orthogonalEdgeStyle;rounded=0;orthogonalLoop=1;jettySize=auto;html=1;entryX=0;entryY=0.5;entryDx=0;entryDy=0;" parent="1" source="8BCfIVkV7p5ncEj1tbCE-17" target="8BCfIVkV7p5ncEj1tbCE-19" edge="1">
          <mxGeometry relative="1" as="geometry" />
        </mxCell>
        <mxCell id="8BCfIVkV7p5ncEj1tbCE-17" value="truy cập web HardTech" style="rounded=0;whiteSpace=wrap;html=1;" parent="1" vertex="1">
          <mxGeometry x="610" y="392.5" width="90" height="30" as="geometry" />
        </mxCell>
        <mxCell id="8BCfIVkV7p5ncEj1tbCE-18" style="edgeStyle=orthogonalEdgeStyle;rounded=0;orthogonalLoop=1;jettySize=auto;html=1;entryX=0.169;entryY=0.097;entryDx=0;entryDy=0;entryPerimeter=0;" parent="1" source="8BCfIVkV7p5ncEj1tbCE-16" target="8BCfIVkV7p5ncEj1tbCE-17" edge="1">
          <mxGeometry relative="1" as="geometry" />
        </mxCell>
        <mxCell id="8BCfIVkV7p5ncEj1tbCE-22" style="edgeStyle=orthogonalEdgeStyle;rounded=0;orthogonalLoop=1;jettySize=auto;html=1;entryX=1;entryY=0;entryDx=0;entryDy=0;" parent="1" target="8BCfIVkV7p5ncEj1tbCE-21" edge="1">
          <mxGeometry relative="1" as="geometry">
            <mxPoint x="890.0434782608695" y="422.5" as="sourcePoint" />
            <mxPoint x="720" y="442.5" as="targetPoint" />
            <Array as="points">
              <mxPoint x="890" y="450" />
            </Array>
          </mxGeometry>
        </mxCell>
        <mxCell id="8BCfIVkV7p5ncEj1tbCE-19" value="hiển thị trang khách" style="rounded=0;whiteSpace=wrap;html=1;" parent="1" vertex="1">
          <mxGeometry x="840" y="385" width="110" height="45" as="geometry" />
        </mxCell>
        <mxCell id="8BCfIVkV7p5ncEj1tbCE-24" style="edgeStyle=orthogonalEdgeStyle;rounded=0;orthogonalLoop=1;jettySize=auto;html=1;entryX=0;entryY=0.25;entryDx=0;entryDy=0;" parent="1" source="8BCfIVkV7p5ncEj1tbCE-21" target="8BCfIVkV7p5ncEj1tbCE-23" edge="1">
          <mxGeometry relative="1" as="geometry">
            <mxPoint x="820" y="480" as="targetPoint" />
            <Array as="points">
              <mxPoint x="860" y="480" />
              <mxPoint x="860" y="480" />
            </Array>
          </mxGeometry>
        </mxCell>
        <mxCell id="8BCfIVkV7p5ncEj1tbCE-21" value="bấm nút đăng nhập" style="rounded=0;whiteSpace=wrap;html=1;" parent="1" vertex="1">
          <mxGeometry x="610" y="450" width="110" height="30" as="geometry" />
        </mxCell>
        <mxCell id="8BCfIVkV7p5ncEj1tbCE-27" style="edgeStyle=orthogonalEdgeStyle;rounded=0;orthogonalLoop=1;jettySize=auto;html=1;entryX=1;entryY=0;entryDx=0;entryDy=0;" parent="1" source="8BCfIVkV7p5ncEj1tbCE-23" target="8BCfIVkV7p5ncEj1tbCE-25" edge="1">
          <mxGeometry relative="1" as="geometry">
            <Array as="points">
              <mxPoint x="790" y="520" />
              <mxPoint x="790" y="520" />
            </Array>
          </mxGeometry>
        </mxCell>
        <mxCell id="8BCfIVkV7p5ncEj1tbCE-23" value="hiển thị trang đăng nhập" style="rounded=0;whiteSpace=wrap;html=1;" parent="1" vertex="1">
          <mxGeometry x="870" y="470" width="150" height="40" as="geometry" />
        </mxCell>
        <mxCell id="8BCfIVkV7p5ncEj1tbCE-28" style="edgeStyle=orthogonalEdgeStyle;rounded=0;orthogonalLoop=1;jettySize=auto;html=1;entryX=0.5;entryY=0;entryDx=0;entryDy=0;" parent="1" source="8BCfIVkV7p5ncEj1tbCE-25" target="8BCfIVkV7p5ncEj1tbCE-26" edge="1">
          <mxGeometry relative="1" as="geometry" />
        </mxCell>
        <mxCell id="8BCfIVkV7p5ncEj1tbCE-25" value="Nhập email, mật khẩu" style="rounded=0;whiteSpace=wrap;html=1;" parent="1" vertex="1">
          <mxGeometry x="610" y="520" width="140" height="30" as="geometry" />
        </mxCell>
        <mxCell id="8BCfIVkV7p5ncEj1tbCE-30" style="edgeStyle=orthogonalEdgeStyle;rounded=0;orthogonalLoop=1;jettySize=auto;html=1;entryX=0;entryY=0.5;entryDx=0;entryDy=0;" parent="1" edge="1">
          <mxGeometry relative="1" as="geometry">
            <mxPoint x="740" y="580" as="sourcePoint" />
            <mxPoint x="870" y="580" as="targetPoint" />
          </mxGeometry>
        </mxCell>
        <mxCell id="8BCfIVkV7p5ncEj1tbCE-26" value="bấm đăng nhập" style="rounded=0;whiteSpace=wrap;html=1;" parent="1" vertex="1">
          <mxGeometry x="620" y="580" width="120" height="40" as="geometry" />
        </mxCell>
        <mxCell id="8BCfIVkV7p5ncEj1tbCE-34" style="edgeStyle=orthogonalEdgeStyle;rounded=0;orthogonalLoop=1;jettySize=auto;html=1;entryX=1;entryY=0.25;entryDx=0;entryDy=0;exitX=0.5;exitY=1;exitDx=0;exitDy=0;" parent="1" source="8BCfIVkV7p5ncEj1tbCE-45" target="8BCfIVkV7p5ncEj1tbCE-33" edge="1">
          <mxGeometry relative="1" as="geometry">
            <mxPoint x="900" y="650" as="targetPoint" />
            <Array as="points">
              <mxPoint x="930" y="680" />
              <mxPoint x="915" y="680" />
            </Array>
          </mxGeometry>
        </mxCell>
        <mxCell id="8BCfIVkV7p5ncEj1tbCE-40" style="edgeStyle=orthogonalEdgeStyle;rounded=0;orthogonalLoop=1;jettySize=auto;html=1;entryX=1;entryY=0.75;entryDx=0;entryDy=0;" parent="1" source="8BCfIVkV7p5ncEj1tbCE-29" target="8BCfIVkV7p5ncEj1tbCE-36" edge="1">
          <mxGeometry relative="1" as="geometry">
            <Array as="points">
              <mxPoint x="1010" y="595" />
              <mxPoint x="1010" y="760" />
            </Array>
          </mxGeometry>
        </mxCell>
        <mxCell id="8BCfIVkV7p5ncEj1tbCE-29" value="xác nhận thông tin" style="rounded=0;whiteSpace=wrap;html=1;" parent="1" vertex="1">
          <mxGeometry x="870" y="580" width="120" height="30" as="geometry" />
        </mxCell>
        <mxCell id="8BCfIVkV7p5ncEj1tbCE-53" style="edgeStyle=orthogonalEdgeStyle;rounded=0;orthogonalLoop=1;jettySize=auto;html=1;entryX=1;entryY=0.5;entryDx=0;entryDy=0;" parent="1" source="8BCfIVkV7p5ncEj1tbCE-33" target="8BCfIVkV7p5ncEj1tbCE-51" edge="1">
          <mxGeometry relative="1" as="geometry" />
        </mxCell>
        <mxCell id="8BCfIVkV7p5ncEj1tbCE-33" value="thông báo sai thông tin đăng nhập" style="rounded=0;whiteSpace=wrap;html=1;" parent="1" vertex="1">
          <mxGeometry x="795" y="670" width="120" height="30" as="geometry" />
        </mxCell>
        <mxCell id="8BCfIVkV7p5ncEj1tbCE-57" style="edgeStyle=orthogonalEdgeStyle;rounded=0;orthogonalLoop=1;jettySize=auto;html=1;" parent="1" source="8BCfIVkV7p5ncEj1tbCE-36" target="8BCfIVkV7p5ncEj1tbCE-56" edge="1">
          <mxGeometry relative="1" as="geometry" />
        </mxCell>
        <mxCell id="8BCfIVkV7p5ncEj1tbCE-36" value="thông báo đăng nhập thành công" style="rounded=0;whiteSpace=wrap;html=1;" parent="1" vertex="1">
          <mxGeometry x="795" y="730" width="120" height="40" as="geometry" />
        </mxCell>
        <mxCell id="8BCfIVkV7p5ncEj1tbCE-38" value="" style="ellipse;html=1;shape=endState;fillColor=#000000;strokeColor=#ff0000;" parent="1" vertex="1">
          <mxGeometry x="990" y="830" width="30" height="30" as="geometry" />
        </mxCell>
        <mxCell id="8BCfIVkV7p5ncEj1tbCE-62" style="edgeStyle=orthogonalEdgeStyle;rounded=0;orthogonalLoop=1;jettySize=auto;html=1;entryX=0;entryY=0.5;entryDx=0;entryDy=0;" parent="1" source="8BCfIVkV7p5ncEj1tbCE-43" target="8BCfIVkV7p5ncEj1tbCE-38" edge="1">
          <mxGeometry relative="1" as="geometry" />
        </mxCell>
        <mxCell id="8BCfIVkV7p5ncEj1tbCE-43" value="chuyển hướng tới trang chủ" style="rounded=0;whiteSpace=wrap;html=1;" parent="1" vertex="1">
          <mxGeometry x="880" y="780" width="120" height="40" as="geometry" />
        </mxCell>
        <mxCell id="8BCfIVkV7p5ncEj1tbCE-45" value="sai" style="rhombus;whiteSpace=wrap;html=1;" parent="1" vertex="1">
          <mxGeometry x="915" y="630" width="30" height="30" as="geometry" />
        </mxCell>
        <mxCell id="8BCfIVkV7p5ncEj1tbCE-49" value="đúng" style="rhombus;whiteSpace=wrap;html=1;" parent="1" vertex="1">
          <mxGeometry x="990" y="660" width="40" height="30" as="geometry" />
        </mxCell>
        <mxCell id="8BCfIVkV7p5ncEj1tbCE-55" style="edgeStyle=orthogonalEdgeStyle;rounded=0;orthogonalLoop=1;jettySize=auto;html=1;entryX=0;entryY=1;entryDx=0;entryDy=0;" parent="1" source="8BCfIVkV7p5ncEj1tbCE-51" target="8BCfIVkV7p5ncEj1tbCE-29" edge="1">
          <mxGeometry relative="1" as="geometry">
            <Array as="points">
              <mxPoint x="683" y="640" />
              <mxPoint x="870" y="640" />
            </Array>
          </mxGeometry>
        </mxCell>
        <mxCell id="8BCfIVkV7p5ncEj1tbCE-51" value="nhập lại" style="rounded=0;whiteSpace=wrap;html=1;" parent="1" vertex="1">
          <mxGeometry x="650" y="670" width="65" height="30" as="geometry" />
        </mxCell>
        <mxCell id="8BCfIVkV7p5ncEj1tbCE-54" value="" style="endArrow=none;html=1;rounded=0;entryX=0.5;entryY=1;entryDx=0;entryDy=0;exitX=0.5;exitY=0;exitDx=0;exitDy=0;" parent="1" source="8BCfIVkV7p5ncEj1tbCE-45" target="8BCfIVkV7p5ncEj1tbCE-29" edge="1">
          <mxGeometry width="50" height="50" relative="1" as="geometry">
            <mxPoint x="860" y="760" as="sourcePoint" />
            <mxPoint x="910" y="710" as="targetPoint" />
          </mxGeometry>
        </mxCell>
        <mxCell id="8BCfIVkV7p5ncEj1tbCE-60" style="edgeStyle=orthogonalEdgeStyle;rounded=0;orthogonalLoop=1;jettySize=auto;html=1;entryX=0;entryY=0.5;entryDx=0;entryDy=0;" parent="1" source="8BCfIVkV7p5ncEj1tbCE-56" target="8BCfIVkV7p5ncEj1tbCE-43" edge="1">
          <mxGeometry relative="1" as="geometry">
            <Array as="points">
              <mxPoint x="685" y="800" />
            </Array>
          </mxGeometry>
        </mxCell>
        <mxCell id="8BCfIVkV7p5ncEj1tbCE-56" value="bấm ok" style="rounded=0;whiteSpace=wrap;html=1;" parent="1" vertex="1">
          <mxGeometry x="650" y="735" width="70" height="30" as="geometry" />
        </mxCell>
      </root>
    </mxGraphModel>
  </diagram>
</mxfile>
